{
  "project_info": {
    "project_number": "30633136967",
    "firebase_url": "https://mitka-2019.firebaseio.com",
    "project_id": "mitka-2019",
    "storage_bucket": "mitka-2019.appspot.com"
  },
  "client": [
    {
      "client_info": {
        "mobilesdk_app_id": "1:30633136967:android:64bb715895b110b66a3262",
        "android_client_info": {
          "package_name": "ua.com.mnbs.mitka"
        }
      },
      "oauth_client": [
        {
          "client_id": "30633136967-k14t5rpb6hh2j5c24kc75l73mg77glvd.apps.googleusercontent.com",
          "client_type": 1,
          "android_info": {
            "package_name": "ua.com.mnbs.mitka",
            "certificate_hash": "8265e377afcd11ceaf91d730181c0120d1880c6b"
          }
        },
        {
          "client_id": "30633136967-rv1me14jt7n35jibqdb938ekj8hel9un.apps.googleusercontent.com",
          "client_type": 1,
          "android_info": {
            "package_name": "ua.com.mnbs.mitka",
            "certificate_hash": "23ef9db859d2daf1721bf441313ba8994de50129"
          }
        },
        {
          "client_id": "30633136967-ri7hmih95q5lf6e2iogi7pdl3rchf0uj.apps.googleusercontent.com",
          "client_type": 1,
          "android_info": {
            "package_name": "ua.com.mnbs.mitka",
            "certificate_hash": "cd4c00e0de88eab4a0d106c675cac5f07fff5d63"
          }
        },
        {
          "client_id": "30633136967-rgnlhli45j186gteavj5lvjsi36j9of1.apps.googleusercontent.com",
          "client_type": 1,
          "android_info": {
            "package_name": "ua.com.mnbs.mitka",
            "certificate_hash": "2c4393ea143ec8cb71fcd8ba2ddca6a770c4f3b7"
          }
        },
        {
          "client_id": "30633136967-3r1ge5uigmr1ppkqv58d70jg76n7lf38.apps.googleusercontent.com",
          "client_type": 1,
          "android_info": {
            "package_name": "ua.com.mnbs.mitka",
            "certificate_hash": "0be438ebcc903033ab1ff59d7e395c8564850462"
          }
        },
        {
          "client_id": "30633136967-6c4357scfefbn2f2a0l3k2mlk5bgpe9o.apps.googleusercontent.com",
          "client_type": 1,
          "android_info": {
            "package_name": "ua.com.mnbs.mitka",
            "certificate_hash": "9a2bc9ace0bad3fece3a77338e266b50dc4f5b43"
          }
        },
        {
          "client_id": "30633136967-3a9664ps543uur6u95mgmsmjmjmfvfm2.apps.googleusercontent.com",
          "client_type": 1,
          "android_info": {
            "package_name": "ua.com.mnbs.mitka",
            "certificate_hash": "11f7462e88032b966aa2989157eb62fde6923bc5"
          }
        },
        {
          "client_id": "30633136967-bsd1gkvtjd3t6o24etdsrsoustcp1l2i.apps.googleusercontent.com",
          "client_type": 3
        }
      ],
      "api_key": [
        {
          "current_key": "AIzaSyBxAExT13rte9v7xxwADHIlWvkUkDeyh5A"
        }
      ],
      "services": {
        "appinvite_service": {
          "other_platform_oauth_client": [
            {
              "client_id": "30633136967-bsd1gkvtjd3t6o24etdsrsoustcp1l2i.apps.googleusercontent.com",
              "client_type": 3
            }
          ]
        }
      }
    }
  ],
  "configuration_version": "1"
}